<svg width="636" height="448" viewBox="0 0 636 448" fill="none" xmlns="http://www.w3.org/2000/svg">
<path d="M101.311 405V378.84L95.7906 380.76L93.3906 375.24L102.271 371.4H109.951V405H101.311ZM134.444 380.52C134.444 378.6 133.484 377.64 131.564 377.64H126.284C124.364 377.64 123.404 378.6 123.404 380.52V395.88C123.404 397.8 124.364 398.76 126.284 398.76H131.564C133.484 398.76 134.444 397.8 134.444 395.88V380.52ZM143.084 395.88C143.084 399.24 142.316 401.688 140.78 403.224C139.276 404.728 136.844 405.48 133.484 405.48H124.364C121.004 405.48 118.556 404.728 117.02 403.224C115.516 401.688 114.764 399.24 114.764 395.88V380.52C114.764 377.16 115.516 374.728 117.02 373.224C118.556 371.688 121.004 370.92 124.364 370.92H133.484C136.844 370.92 139.276 371.688 140.78 373.224C142.316 374.728 143.084 377.16 143.084 380.52V395.88ZM162.271 371.4H181.471C184.607 371.4 186.911 372.12 188.383 373.56C189.855 374.968 190.591 377.128 190.591 380.04C190.591 381.96 190.175 383.528 189.343 384.744C188.511 385.928 187.487 386.76 186.271 387.24C188.863 387.944 190.623 389.672 191.551 392.424C191.871 393.416 192.031 394.568 192.031 395.88C192.031 399.016 191.295 401.32 189.823 402.792C188.351 404.264 186.047 405 182.911 405H162.271V371.4ZM183.391 394.44C183.391 392.52 182.431 391.56 180.511 391.56H170.911V398.28H180.511C182.431 398.28 183.391 397.32 183.391 395.4V394.44ZM181.951 381C181.951 379.08 180.991 378.12 179.071 378.12H170.911V384.84H179.071C180.991 384.84 181.951 383.88 181.951 381.96V381ZM225.629 405H216.509L204.989 384.84V405H196.349V371.4H205.469L216.989 391.56V371.4H225.629V405ZM231.411 371.4H250.611C253.747 371.4 256.051 372.12 257.523 373.56C258.995 374.968 259.731 377.128 259.731 380.04C259.731 381.96 259.315 383.528 258.483 384.744C257.651 385.928 256.627 386.76 255.411 387.24C258.003 387.944 259.763 389.672 260.691 392.424C261.011 393.416 261.171 394.568 261.171 395.88C261.171 399.016 260.435 401.32 258.963 402.792C257.491 404.264 255.187 405 252.051 405H231.411V371.4ZM252.531 394.44C252.531 392.52 251.571 391.56 249.651 391.56H240.051V398.28H249.651C251.571 398.28 252.531 397.32 252.531 395.4V394.44ZM251.091 381C251.091 379.08 250.131 378.12 248.211 378.12H240.051V384.84H248.211C250.131 384.84 251.091 383.88 251.091 381.96V381Z" fill="url(#paint0_linear_92_41)"/>
<path d="M106.211 440.24C104.867 440.24 103.859 439.912 103.187 439.256C102.531 438.584 102.203 437.576 102.203 436.232V428.144H105.803V435.752C105.803 436.152 105.923 436.44 106.163 436.616C106.403 436.792 106.787 436.88 107.315 436.88C107.619 436.88 107.939 436.856 108.275 436.808C108.627 436.76 108.979 436.688 109.331 436.592V428.144H112.931V440H109.571L109.475 439.352H109.427C108.867 439.624 108.299 439.84 107.723 440C107.163 440.16 106.659 440.24 106.211 440.24ZM118.601 440H115.001V428.144H118.121L118.265 429.392H118.337C118.849 428.864 119.401 428.488 119.993 428.264C120.601 428.024 121.329 427.904 122.177 427.904C123.521 427.904 124.537 428.232 125.225 428.888C125.913 429.544 126.257 430.512 126.257 431.792V440H122.657V432.272C122.657 431.904 122.505 431.624 122.201 431.432C121.913 431.24 121.481 431.144 120.905 431.144C120.473 431.144 120.057 431.192 119.657 431.288C119.257 431.384 118.905 431.52 118.601 431.696V440ZM131.866 424.04V440H128.266V424.04H131.866ZM145.218 434.072C145.218 436.296 144.77 437.88 143.874 438.824C142.978 439.768 141.474 440.24 139.362 440.24C137.25 440.24 135.746 439.768 134.85 438.824C133.954 437.88 133.506 436.296 133.506 434.072C133.506 431.848 133.954 430.264 134.85 429.32C135.746 428.376 137.25 427.904 139.362 427.904C141.474 427.904 142.978 428.376 143.874 429.32C144.77 430.264 145.218 431.848 145.218 434.072ZM137.106 434.024C137.106 435.24 137.234 436.024 137.49 436.376C137.762 436.728 138.386 436.904 139.362 436.904C140.338 436.904 140.954 436.728 141.21 436.376C141.482 436.024 141.618 435.24 141.618 434.024C141.618 432.808 141.482 432.024 141.21 431.672C140.954 431.32 140.338 431.144 139.362 431.144C138.386 431.144 137.762 431.32 137.49 431.672C137.234 432.024 137.106 432.808 137.106 434.024ZM155.66 436.376V439.352C155.276 439.592 154.652 439.8 153.788 439.976C152.924 440.152 152.036 440.24 151.124 440.24C149.396 440.24 148.18 439.784 147.476 438.872C146.788 437.944 146.444 436.344 146.444 434.072C146.444 431.8 146.892 430.208 147.788 429.296C148.684 428.368 150.252 427.904 152.492 427.904C153.036 427.904 153.524 427.92 153.956 427.952C154.388 427.968 154.852 428.008 155.348 428.072V431.264C154.564 431.2 153.996 431.168 153.644 431.168C153.292 431.152 152.908 431.144 152.492 431.144C151.388 431.144 150.7 431.304 150.428 431.624C150.172 431.928 150.044 432.744 150.044 434.072C150.044 435.272 150.148 436.04 150.356 436.376C150.58 436.712 151.084 436.88 151.868 436.88C152.508 436.88 153.172 436.832 153.86 436.736C154.564 436.64 155.164 436.52 155.66 436.376ZM160.741 435.392V440H157.141V424.04H160.741V432.608H161.293L164.293 428.144H168.565L164.389 433.856L168.805 440H164.413L161.293 435.392H160.741ZM176.029 440.24C174.813 440.24 173.917 439.936 173.341 439.328C172.781 438.72 172.501 437.76 172.501 436.448C172.501 435.104 172.837 434.16 173.509 433.616C174.197 433.072 175.373 432.8 177.037 432.8C177.421 432.8 177.813 432.824 178.213 432.872C178.629 432.904 178.989 432.952 179.293 433.016V432.152C179.293 431.768 179.125 431.488 178.789 431.312C178.469 431.12 177.973 431.024 177.301 431.024C176.533 431.024 175.845 431.048 175.237 431.096C174.645 431.128 174.101 431.192 173.605 431.288V428.336C174.197 428.192 174.885 428.088 175.669 428.024C176.453 427.944 177.365 427.904 178.405 427.904C179.877 427.904 180.989 428.232 181.741 428.888C182.509 429.544 182.893 430.512 182.893 431.792V440H179.533L179.413 438.992H179.341C178.845 439.376 178.301 439.68 177.709 439.904C177.117 440.128 176.557 440.24 176.029 440.24ZM177.517 435.176C176.877 435.176 176.445 435.248 176.221 435.392C175.997 435.52 175.885 435.8 175.885 436.232C175.885 436.632 175.973 436.912 176.149 437.072C176.341 437.216 176.669 437.288 177.133 437.288C177.485 437.288 177.853 437.24 178.237 437.144C178.621 437.048 178.973 436.928 179.293 436.784V435.32C179.101 435.272 178.861 435.24 178.573 435.224C178.285 435.192 177.933 435.176 177.517 435.176ZM188.515 440H184.915V428.144H188.035L188.179 429.392H188.251C188.763 428.864 189.315 428.488 189.907 428.264C190.515 428.024 191.243 427.904 192.091 427.904C193.435 427.904 194.451 428.232 195.139 428.888C195.827 429.544 196.171 430.512 196.171 431.792V440H192.571V432.272C192.571 431.904 192.419 431.624 192.115 431.432C191.827 431.24 191.395 431.144 190.819 431.144C190.387 431.144 189.971 431.192 189.571 431.288C189.171 431.384 188.819 431.52 188.515 431.696V440ZM199.413 440.816C199.973 440.816 200.381 440.736 200.637 440.576C200.909 440.432 201.093 440.16 201.189 439.76L196.725 428.144H200.733L203.013 436.256L205.173 428.144H209.037L204.813 440.24C204.365 441.536 203.773 442.464 203.037 443.024C202.317 443.6 201.357 443.888 200.157 443.888C199.821 443.888 199.469 443.872 199.101 443.84C198.749 443.808 198.429 443.76 198.141 443.696V440.768C198.269 440.784 198.413 440.792 198.573 440.792C198.733 440.808 199.013 440.816 199.413 440.816ZM210.831 431.144H209.439V428.144H210.951L211.407 425.384H214.431V428.144H217.791V431.144H214.431V435.752C214.431 436.2 214.543 436.504 214.767 436.664C215.007 436.808 215.471 436.88 216.159 436.88C216.399 436.88 216.695 436.864 217.047 436.832C217.399 436.784 217.695 436.736 217.935 436.688V439.76C217.679 439.872 217.279 439.976 216.735 440.072C216.207 440.184 215.735 440.24 215.319 440.24C213.719 440.24 212.567 439.904 211.863 439.232C211.175 438.544 210.831 437.432 210.831 435.896V431.144ZM222.9 426.848H219.108V424.04H222.9V426.848ZM222.804 440H219.204V428.144H222.804V440ZM228.476 440H224.876V428.144H228.236L228.356 429.032H228.428C229.02 428.664 229.588 428.384 230.132 428.192C230.676 428 231.196 427.904 231.692 427.904C232.348 427.904 232.908 428.008 233.372 428.216C233.836 428.408 234.204 428.704 234.476 429.104H234.572C235.116 428.736 235.724 428.448 236.396 428.24C237.084 428.016 237.74 427.904 238.364 427.904C239.532 427.904 240.396 428.224 240.956 428.864C241.532 429.504 241.82 430.48 241.82 431.792V440H238.22V432.272C238.22 431.872 238.108 431.584 237.884 431.408C237.66 431.232 237.308 431.144 236.828 431.144C236.572 431.144 236.3 431.168 236.012 431.216C235.724 431.264 235.436 431.336 235.148 431.432V440H231.548V432.272C231.548 431.872 231.436 431.584 231.212 431.408C230.988 431.232 230.636 431.144 230.156 431.144C229.9 431.144 229.628 431.168 229.34 431.216C229.052 431.264 228.764 431.336 228.476 431.432V440ZM253.653 436.496V439.352C253.269 439.592 252.621 439.8 251.709 439.976C250.797 440.152 249.837 440.24 248.829 440.24C246.909 440.24 245.525 439.76 244.677 438.8C243.829 437.824 243.405 436.248 243.405 434.072C243.405 431.944 243.853 430.384 244.749 429.392C245.645 428.4 247.061 427.904 248.997 427.904C250.885 427.904 252.213 428.28 252.981 429.032C253.765 429.768 254.157 431.08 254.157 432.968C254.157 433.48 254.149 433.888 254.133 434.192C254.117 434.496 254.085 434.848 254.037 435.248H247.029C247.045 435.904 247.221 436.36 247.557 436.616C247.893 436.872 248.509 437 249.405 437C250.173 437 250.957 436.952 251.757 436.856C252.557 436.744 253.189 436.624 253.653 436.496ZM248.997 430.976C248.229 430.976 247.709 431.112 247.437 431.384C247.165 431.64 247.029 432.152 247.029 432.92H250.893V432.392C250.877 431.832 250.741 431.456 250.485 431.264C250.245 431.072 249.749 430.976 248.997 430.976Z" fill="#D9D9D9"/>
<path d="M377.873 380.52C377.873 378.6 376.913 377.64 374.993 377.64H369.713C367.793 377.64 366.833 378.6 366.833 380.52V395.88C366.833 397.8 367.793 398.76 369.713 398.76H374.993C376.913 398.76 377.873 397.8 377.873 395.88V380.52ZM386.513 395.88C386.513 399.24 385.745 401.688 384.209 403.224C382.705 404.728 380.273 405.48 376.913 405.48H367.793C364.433 405.48 361.985 404.728 360.449 403.224C358.945 401.688 358.193 399.24 358.193 395.88V380.52C358.193 377.16 358.945 374.728 360.449 373.224C361.985 371.688 364.433 370.92 367.793 370.92H376.913C380.273 370.92 382.705 371.688 384.209 373.224C385.745 374.728 386.513 377.16 386.513 380.52V395.88ZM389.87 397.8H398.51V405H389.87V397.8ZM412.921 391.56C411.001 391.56 410.041 392.52 410.041 394.44V396.36C410.041 397.096 410.249 397.688 410.665 398.136C411.113 398.552 411.705 398.76 412.441 398.76H419.641C420.377 398.76 420.953 398.552 421.369 398.136C421.817 397.688 422.041 397.096 422.041 396.36V394.44C422.041 392.52 421.081 391.56 419.161 391.56H412.921ZM413.881 377.64C411.961 377.64 411.001 378.6 411.001 380.52V381.96C411.001 383.88 411.961 384.84 413.881 384.84H418.201C420.121 384.84 421.081 383.88 421.081 381.96V380.52C421.081 378.6 420.121 377.64 418.201 377.64H413.881ZM430.681 396.36C430.681 399.496 429.945 401.8 428.473 403.272C427.001 404.744 424.697 405.48 421.561 405.48H410.521C407.385 405.48 405.081 404.744 403.609 403.272C402.137 401.8 401.401 399.496 401.401 396.36V395.88C401.401 393.448 402.009 391.432 403.225 389.832C404.185 388.552 405.497 387.688 407.161 387.24C405.721 386.76 404.553 385.928 403.657 384.744C402.793 383.528 402.361 381.96 402.361 380.04V379.56C402.361 376.648 403.097 374.488 404.569 373.08C406.041 371.64 408.345 370.92 411.481 370.92H420.601C423.737 370.92 426.041 371.64 427.513 373.08C428.985 374.488 429.721 376.648 429.721 379.56V380.04C429.721 381.96 429.273 383.528 428.377 384.744C427.513 385.928 426.361 386.76 424.921 387.24C427.513 387.944 429.273 389.672 430.201 392.424C430.521 393.416 430.681 394.568 430.681 395.88V396.36ZM449.388 371.4H468.588C471.724 371.4 474.028 372.12 475.5 373.56C476.972 374.968 477.708 377.128 477.708 380.04C477.708 381.96 477.292 383.528 476.46 384.744C475.628 385.928 474.604 386.76 473.388 387.24C475.98 387.944 477.74 389.672 478.668 392.424C478.988 393.416 479.148 394.568 479.148 395.88C479.148 399.016 478.412 401.32 476.94 402.792C475.468 404.264 473.164 405 470.028 405H449.388V371.4ZM470.508 394.44C470.508 392.52 469.548 391.56 467.628 391.56H458.028V398.28H467.628C469.548 398.28 470.508 397.32 470.508 395.4V394.44ZM469.068 381C469.068 379.08 468.108 378.12 466.188 378.12H458.028V384.84H466.188C468.108 384.84 469.068 383.88 469.068 381.96V381ZM512.746 405H503.626L492.106 384.84V405H483.466V371.4H492.586L504.106 391.56V371.4H512.746V405ZM518.528 371.4H537.728C540.864 371.4 543.168 372.12 544.64 373.56C546.112 374.968 546.848 377.128 546.848 380.04C546.848 381.96 546.432 383.528 545.6 384.744C544.768 385.928 543.744 386.76 542.528 387.24C545.12 387.944 546.88 389.672 547.808 392.424C548.128 393.416 548.288 394.568 548.288 395.88C548.288 399.016 547.552 401.32 546.08 402.792C544.608 404.264 542.304 405 539.168 405H518.528V371.4ZM539.648 394.44C539.648 392.52 538.688 391.56 536.768 391.56H527.168V398.28H536.768C538.688 398.28 539.648 397.32 539.648 395.4V394.44ZM538.208 381C538.208 379.08 537.248 378.12 535.328 378.12H527.168V384.84H535.328C537.248 384.84 538.208 383.88 538.208 381.96V381Z" fill="url(#paint1_linear_92_41)"/>
<path d="M378.402 440.816C378.962 440.816 379.37 440.736 379.626 440.576C379.898 440.432 380.082 440.16 380.178 439.76L375.714 428.144H379.722L382.002 436.256L384.162 428.144H388.026L383.802 440.24C383.354 441.536 382.762 442.464 382.026 443.024C381.306 443.6 380.346 443.888 379.146 443.888C378.81 443.888 378.458 443.872 378.09 443.84C377.738 443.808 377.418 443.76 377.13 443.696V440.768C377.258 440.784 377.402 440.792 377.562 440.792C377.722 440.808 378.002 440.816 378.402 440.816ZM392.748 426.848H388.956V424.04H392.748V426.848ZM392.652 440H389.052V428.144H392.652V440ZM404.539 436.496V439.352C404.155 439.592 403.507 439.8 402.595 439.976C401.683 440.152 400.723 440.24 399.715 440.24C397.795 440.24 396.411 439.76 395.563 438.8C394.715 437.824 394.291 436.248 394.291 434.072C394.291 431.944 394.739 430.384 395.635 429.392C396.531 428.4 397.947 427.904 399.883 427.904C401.771 427.904 403.099 428.28 403.867 429.032C404.651 429.768 405.043 431.08 405.043 432.968C405.043 433.48 405.035 433.888 405.019 434.192C405.003 434.496 404.971 434.848 404.923 435.248H397.915C397.931 435.904 398.107 436.36 398.443 436.616C398.779 436.872 399.395 437 400.291 437C401.059 437 401.843 436.952 402.643 436.856C403.443 436.744 404.075 436.624 404.539 436.496ZM399.883 430.976C399.115 430.976 398.595 431.112 398.323 431.384C398.051 431.64 397.915 432.152 397.915 432.92H401.779V432.392C401.763 431.832 401.627 431.456 401.371 431.264C401.131 431.072 400.635 430.976 399.883 430.976ZM410.3 424.04V440H406.7V424.04H410.3ZM419.692 424.04H423.292V440H420.1L419.908 438.896H419.836C419.404 439.344 418.892 439.68 418.3 439.904C417.708 440.128 417.036 440.24 416.284 440.24C414.716 440.24 413.596 439.768 412.924 438.824C412.268 437.88 411.94 436.296 411.94 434.072C411.94 431.912 412.356 430.344 413.188 429.368C414.036 428.392 415.404 427.904 417.292 427.904C417.756 427.904 418.188 427.936 418.588 428C419.004 428.048 419.372 428.12 419.692 428.216V424.04ZM417.796 431.144C416.836 431.144 416.22 431.328 415.948 431.696C415.676 432.048 415.54 432.84 415.54 434.072C415.54 435.24 415.66 436.008 415.9 436.376C416.14 436.728 416.7 436.904 417.58 436.904C417.996 436.904 418.38 436.872 418.732 436.808C419.1 436.744 419.42 436.648 419.692 436.52V431.456C419.452 431.344 419.172 431.264 418.852 431.216C418.548 431.168 418.196 431.144 417.796 431.144ZM432.519 443.648H428.919V428.144H432.087L432.279 429.248H432.327C432.759 428.8 433.271 428.464 433.863 428.24C434.471 428.016 435.159 427.904 435.927 427.904C437.495 427.904 438.607 428.376 439.263 429.32C439.935 430.264 440.271 431.848 440.271 434.072C440.271 436.232 439.847 437.8 438.999 438.776C438.167 439.752 436.807 440.24 434.919 440.24C434.455 440.24 434.015 440.208 433.599 440.144C433.199 440.096 432.839 440.024 432.519 439.928V443.648ZM436.671 434.072C436.671 432.872 436.543 432.088 436.287 431.72C436.031 431.336 435.479 431.144 434.631 431.144C434.215 431.144 433.823 431.176 433.455 431.24C433.103 431.304 432.791 431.4 432.519 431.528V436.592C432.759 436.704 433.031 436.784 433.335 436.832C433.655 436.88 434.015 436.904 434.415 436.904C435.391 436.904 436.007 436.736 436.263 436.4C436.535 436.048 436.671 435.272 436.671 434.072ZM444.783 440.24C443.567 440.24 442.671 439.936 442.095 439.328C441.535 438.72 441.255 437.76 441.255 436.448C441.255 435.104 441.591 434.16 442.263 433.616C442.951 433.072 444.127 432.8 445.791 432.8C446.175 432.8 446.567 432.824 446.967 432.872C447.383 432.904 447.743 432.952 448.047 433.016V432.152C448.047 431.768 447.879 431.488 447.543 431.312C447.223 431.12 446.727 431.024 446.055 431.024C445.287 431.024 444.599 431.048 443.991 431.096C443.399 431.128 442.855 431.192 442.359 431.288V428.336C442.951 428.192 443.639 428.088 444.423 428.024C445.207 427.944 446.119 427.904 447.159 427.904C448.631 427.904 449.743 428.232 450.495 428.888C451.263 429.544 451.647 430.512 451.647 431.792V440H448.287L448.167 438.992H448.095C447.599 439.376 447.055 439.68 446.463 439.904C445.871 440.128 445.311 440.24 444.783 440.24ZM446.271 435.176C445.631 435.176 445.199 435.248 444.975 435.392C444.751 435.52 444.639 435.8 444.639 436.232C444.639 436.632 444.727 436.912 444.903 437.072C445.095 437.216 445.423 437.288 445.887 437.288C446.239 437.288 446.607 437.24 446.991 437.144C447.375 437.048 447.727 436.928 448.047 436.784V435.32C447.855 435.272 447.615 435.24 447.327 435.224C447.039 435.192 446.687 435.176 446.271 435.176ZM457.365 426.848H453.573V424.04H457.365V426.848ZM457.269 440H453.669V428.144H457.269V440ZM466.661 424.04H470.261V440H467.069L466.877 438.896H466.805C466.373 439.344 465.861 439.68 465.269 439.904C464.677 440.128 464.005 440.24 463.253 440.24C461.685 440.24 460.565 439.768 459.893 438.824C459.237 437.88 458.909 436.296 458.909 434.072C458.909 431.912 459.325 430.344 460.157 429.368C461.005 428.392 462.373 427.904 464.261 427.904C464.725 427.904 465.157 427.936 465.557 428C465.973 428.048 466.341 428.12 466.661 428.216V424.04ZM464.765 431.144C463.805 431.144 463.189 431.328 462.917 431.696C462.645 432.048 462.509 432.84 462.509 434.072C462.509 435.24 462.629 436.008 462.869 436.376C463.109 436.728 463.669 436.904 464.549 436.904C464.965 436.904 465.349 436.872 465.701 436.808C466.069 436.744 466.389 436.648 466.661 436.52V431.456C466.421 431.344 466.141 431.264 465.821 431.216C465.517 431.168 465.165 431.144 464.765 431.144ZM476.655 431.144H475.263V428.144H476.775L477.231 425.384H480.255V428.144H483.615V431.144H480.255V435.752C480.255 436.2 480.367 436.504 480.591 436.664C480.831 436.808 481.295 436.88 481.983 436.88C482.223 436.88 482.519 436.864 482.871 436.832C483.223 436.784 483.519 436.736 483.759 436.688V439.76C483.503 439.872 483.103 439.976 482.559 440.072C482.031 440.184 481.559 440.24 481.143 440.24C479.543 440.24 478.391 439.904 477.687 439.232C476.999 438.544 476.655 437.432 476.655 435.896V431.144ZM496.191 434.072C496.191 436.296 495.743 437.88 494.847 438.824C493.951 439.768 492.447 440.24 490.335 440.24C488.223 440.24 486.719 439.768 485.823 438.824C484.927 437.88 484.479 436.296 484.479 434.072C484.479 431.848 484.927 430.264 485.823 429.32C486.719 428.376 488.223 427.904 490.335 427.904C492.447 427.904 493.951 428.376 494.847 429.32C495.743 430.264 496.191 431.848 496.191 434.072ZM488.079 434.024C488.079 435.24 488.207 436.024 488.463 436.376C488.735 436.728 489.359 436.904 490.335 436.904C491.311 436.904 491.927 436.728 492.183 436.376C492.455 436.024 492.591 435.24 492.591 434.024C492.591 432.808 492.455 432.024 492.183 431.672C491.927 431.32 491.311 431.144 490.335 431.144C489.359 431.144 488.735 431.32 488.463 431.672C488.207 432.024 488.079 432.808 488.079 434.024ZM505.145 424.04H508.745V440H505.553L505.361 438.896H505.289C504.857 439.344 504.345 439.68 503.753 439.904C503.161 440.128 502.489 440.24 501.737 440.24C500.169 440.24 499.049 439.768 498.377 438.824C497.721 437.88 497.393 436.296 497.393 434.072C497.393 431.912 497.809 430.344 498.641 429.368C499.489 428.392 500.857 427.904 502.745 427.904C503.209 427.904 503.641 427.936 504.041 428C504.457 428.048 504.825 428.12 505.145 428.216V424.04ZM503.249 431.144C502.289 431.144 501.673 431.328 501.401 431.696C501.129 432.048 500.993 432.84 500.993 434.072C500.993 435.24 501.113 436.008 501.353 436.376C501.593 436.728 502.153 436.904 503.033 436.904C503.449 436.904 503.833 436.872 504.185 436.808C504.553 436.744 504.873 436.648 505.145 436.52V431.456C504.905 431.344 504.625 431.264 504.305 431.216C504.001 431.168 503.649 431.144 503.249 431.144ZM513.689 440.24C512.473 440.24 511.577 439.936 511.001 439.328C510.441 438.72 510.161 437.76 510.161 436.448C510.161 435.104 510.497 434.16 511.169 433.616C511.857 433.072 513.033 432.8 514.697 432.8C515.081 432.8 515.473 432.824 515.873 432.872C516.289 432.904 516.649 432.952 516.953 433.016V432.152C516.953 431.768 516.785 431.488 516.449 431.312C516.129 431.12 515.633 431.024 514.961 431.024C514.193 431.024 513.505 431.048 512.897 431.096C512.305 431.128 511.761 431.192 511.265 431.288V428.336C511.857 428.192 512.545 428.088 513.329 428.024C514.113 427.944 515.025 427.904 516.065 427.904C517.537 427.904 518.649 428.232 519.401 428.888C520.169 429.544 520.553 430.512 520.553 431.792V440H517.193L517.073 438.992H517.001C516.505 439.376 515.961 439.68 515.369 439.904C514.777 440.128 514.217 440.24 513.689 440.24ZM515.177 435.176C514.537 435.176 514.105 435.248 513.881 435.392C513.657 435.52 513.545 435.8 513.545 436.232C513.545 436.632 513.633 436.912 513.809 437.072C514.001 437.216 514.329 437.288 514.793 437.288C515.145 437.288 515.513 437.24 515.897 437.144C516.281 437.048 516.633 436.928 516.953 436.784V435.32C516.761 435.272 516.521 435.24 516.233 435.224C515.945 435.192 515.593 435.176 515.177 435.176ZM523.785 440.816C524.345 440.816 524.753 440.736 525.009 440.576C525.281 440.432 525.465 440.16 525.561 439.76L521.097 428.144H525.105L527.385 436.256L529.545 428.144H533.409L529.185 440.24C528.737 441.536 528.145 442.464 527.409 443.024C526.689 443.6 525.729 443.888 524.529 443.888C524.193 443.888 523.841 443.872 523.473 443.84C523.121 443.808 522.801 443.76 522.513 443.696V440.768C522.641 440.784 522.785 440.792 522.945 440.792C523.105 440.808 523.385 440.816 523.785 440.816Z" fill="#D9D9D9"/>
<path d="M208 5.5C221.81 5.5 233 16.6964 233 30.5C233 44.3104 221.804 55.5 208 55.5C194.196 55.5 183 44.3104 183 30.5C183 16.6964 194.196 5.5 208 5.5Z" fill="url(#paint2_linear_92_41)"/>
<path d="M201.53 27.8181L205.319 24.043L206.113 23.2418L208.007 21.3543L214.451 27.8181L218.199 24.043L208.007 13.8312L197.782 24.043L201.53 27.8181Z" fill="white"/>
<path d="M208.012 26.7279L204.248 30.4919L208.012 34.256L211.776 30.4919L208.012 26.7279Z" fill="white"/>
<path d="M214.451 33.1954L208.007 39.6389L205.739 37.3779L205.325 36.957L201.53 33.1954L197.782 36.9434L208.007 47.1552L218.199 36.9434L214.451 33.1954Z" fill="white"/>
<path d="M195.1 26.7416L191.336 30.5056L195.1 34.2696L198.865 30.5056L195.1 26.7416Z" fill="white"/>
<path d="M220.9 26.7391L217.136 30.5032L220.9 34.2672L224.664 30.5032L220.9 26.7391Z" fill="white"/>
<path d="M266.311 46.5V20.34L260.791 22.26L258.391 16.74L267.271 12.9H274.951V46.5H266.311ZM299.444 22.02C299.444 20.1 298.484 19.14 296.564 19.14H291.284C289.364 19.14 288.404 20.1 288.404 22.02V37.38C288.404 39.3 289.364 40.26 291.284 40.26H296.564C298.484 40.26 299.444 39.3 299.444 37.38V22.02ZM308.084 37.38C308.084 40.74 307.316 43.188 305.78 44.724C304.276 46.228 301.844 46.98 298.484 46.98H289.364C286.004 46.98 283.556 46.228 282.02 44.724C280.516 43.188 279.764 40.74 279.764 37.38V22.02C279.764 18.66 280.516 16.228 282.02 14.724C283.556 13.188 286.004 12.42 289.364 12.42H298.484C301.844 12.42 304.276 13.188 305.78 14.724C307.316 16.228 308.084 18.66 308.084 22.02V37.38ZM327.271 12.9H346.471C349.607 12.9 351.911 13.62 353.383 15.06C354.855 16.468 355.591 18.628 355.591 21.54C355.591 23.46 355.175 25.028 354.343 26.244C353.511 27.428 352.487 28.26 351.271 28.74C353.863 29.444 355.623 31.172 356.551 33.924C356.871 34.916 357.031 36.068 357.031 37.38C357.031 40.516 356.295 42.82 354.823 44.292C353.351 45.764 351.047 46.5 347.911 46.5H327.271V12.9ZM348.391 35.94C348.391 34.02 347.431 33.06 345.511 33.06H335.911V39.78H345.511C347.431 39.78 348.391 38.82 348.391 36.9V35.94ZM346.951 22.5C346.951 20.58 345.991 19.62 344.071 19.62H335.911V26.34H344.071C345.991 26.34 346.951 25.38 346.951 23.46V22.5ZM390.629 46.5H381.509L369.989 26.34V46.5H361.349V12.9H370.469L381.989 33.06V12.9H390.629V46.5ZM396.411 12.9H415.611C418.747 12.9 421.051 13.62 422.523 15.06C423.995 16.468 424.731 18.628 424.731 21.54C424.731 23.46 424.315 25.028 423.483 26.244C422.651 27.428 421.627 28.26 420.411 28.74C423.003 29.444 424.763 31.172 425.691 33.924C426.011 34.916 426.171 36.068 426.171 37.38C426.171 40.516 425.435 42.82 423.963 44.292C422.491 45.764 420.187 46.5 417.051 46.5H396.411V12.9ZM417.531 35.94C417.531 34.02 416.571 33.06 414.651 33.06H405.051V39.78H414.651C416.571 39.78 417.531 38.82 417.531 36.9V35.94ZM416.091 22.5C416.091 20.58 415.131 19.62 413.211 19.62H405.051V26.34H413.211C415.131 26.34 416.091 25.38 416.091 23.46V22.5Z" fill="url(#paint3_linear_92_41)"/>
<path d="M247.779 81.164V72.452H251.499V81.164C251.499 83.356 250.963 85.004 249.891 86.108C248.819 87.196 247.211 87.74 245.067 87.74C242.811 87.74 241.163 87.22 240.123 86.18C239.099 85.14 238.587 83.468 238.587 81.164V72.452H242.307V81.164C242.307 82.38 242.491 83.204 242.859 83.636C243.243 84.052 243.979 84.26 245.067 84.26C246.139 84.26 246.859 84.052 247.227 83.636C247.595 83.204 247.779 82.38 247.779 81.164ZM257.046 91.148H253.446V75.644H256.614L256.806 76.748H256.854C257.286 76.3 257.798 75.964 258.39 75.74C258.998 75.516 259.686 75.404 260.454 75.404C262.022 75.404 263.134 75.876 263.79 76.82C264.462 77.764 264.798 79.348 264.798 81.572C264.798 83.732 264.374 85.3 263.526 86.276C262.694 87.252 261.334 87.74 259.446 87.74C258.982 87.74 258.542 87.708 258.126 87.644C257.726 87.596 257.366 87.524 257.046 87.428V91.148ZM261.198 81.572C261.198 80.372 261.07 79.588 260.814 79.22C260.558 78.836 260.006 78.644 259.158 78.644C258.742 78.644 258.35 78.676 257.982 78.74C257.63 78.804 257.318 78.9 257.046 79.028V84.092C257.286 84.204 257.558 84.284 257.862 84.332C258.182 84.38 258.542 84.404 258.942 84.404C259.918 84.404 260.534 84.236 260.79 83.9C261.062 83.548 261.198 82.772 261.198 81.572ZM267.131 78.644H265.739V75.644H267.131C267.147 74.204 267.539 73.124 268.307 72.404C269.091 71.668 270.235 71.3 271.739 71.3C272.091 71.3 272.467 71.324 272.867 71.372C273.283 71.404 273.675 71.46 274.043 71.54V74.3C273.835 74.268 273.579 74.244 273.275 74.228C272.971 74.196 272.699 74.18 272.459 74.18C271.691 74.18 271.211 74.252 271.019 74.396C270.827 74.54 270.731 74.844 270.731 75.308V75.644H273.683V78.644H270.731V87.5H267.131V78.644ZM278.538 87.5H274.938V75.644H278.298L278.418 76.556H278.466C279.042 76.204 279.626 75.94 280.218 75.764C280.826 75.572 281.394 75.476 281.922 75.476H282.114V78.956C281.97 78.924 281.81 78.908 281.634 78.908C281.474 78.892 281.266 78.884 281.01 78.884C280.546 78.884 280.106 78.916 279.69 78.98C279.274 79.028 278.89 79.108 278.538 79.22V87.5ZM294.515 81.572C294.515 83.796 294.067 85.38 293.171 86.324C292.275 87.268 290.771 87.74 288.659 87.74C286.547 87.74 285.043 87.268 284.147 86.324C283.251 85.38 282.803 83.796 282.803 81.572C282.803 79.348 283.251 77.764 284.147 76.82C285.043 75.876 286.547 75.404 288.659 75.404C290.771 75.404 292.275 75.876 293.171 76.82C294.067 77.764 294.515 79.348 294.515 81.572ZM286.403 81.524C286.403 82.74 286.531 83.524 286.787 83.876C287.059 84.228 287.683 84.404 288.659 84.404C289.635 84.404 290.251 84.228 290.507 83.876C290.779 83.524 290.915 82.74 290.915 81.524C290.915 80.308 290.779 79.524 290.507 79.172C290.251 78.82 289.635 78.644 288.659 78.644C287.683 78.644 287.059 78.82 286.787 79.172C286.531 79.524 286.403 80.308 286.403 81.524ZM299.749 87.5H296.149V75.644H299.269L299.413 76.892H299.485C299.997 76.364 300.549 75.988 301.141 75.764C301.749 75.524 302.477 75.404 303.325 75.404C304.669 75.404 305.685 75.732 306.373 76.388C307.061 77.044 307.405 78.012 307.405 79.292V87.5H303.805V79.772C303.805 79.404 303.653 79.124 303.349 78.932C303.061 78.74 302.629 78.644 302.053 78.644C301.621 78.644 301.205 78.692 300.805 78.788C300.405 78.884 300.053 79.02 299.749 79.196V87.5ZM310.042 78.644H308.65V75.644H310.162L310.618 72.884H313.642V75.644H317.002V78.644H313.642V83.252C313.642 83.7 313.754 84.004 313.978 84.164C314.218 84.308 314.682 84.38 315.37 84.38C315.61 84.38 315.906 84.364 316.258 84.332C316.61 84.284 316.906 84.236 317.146 84.188V87.26C316.89 87.372 316.49 87.476 315.946 87.572C315.418 87.684 314.946 87.74 314.53 87.74C312.93 87.74 311.778 87.404 311.074 86.732C310.386 86.044 310.042 84.932 310.042 83.396V78.644ZM327.809 81.884L324.761 81.164C323.545 80.876 322.713 80.436 322.265 79.844C321.833 79.252 321.617 78.404 321.617 77.3C321.617 75.556 322.073 74.276 322.985 73.46C323.913 72.628 325.345 72.212 327.281 72.212C328.081 72.212 328.793 72.244 329.417 72.308C330.041 72.372 330.617 72.484 331.145 72.644V75.98C329.929 75.772 329.089 75.652 328.625 75.62C328.177 75.588 327.705 75.572 327.209 75.572C326.537 75.572 326.049 75.684 325.745 75.908C325.441 76.132 325.289 76.508 325.289 77.036C325.289 77.292 325.337 77.492 325.433 77.636C325.529 77.764 325.713 77.86 325.985 77.924L328.865 78.596C329.697 78.788 330.297 78.98 330.665 79.172C331.033 79.348 331.329 79.58 331.553 79.868C331.809 80.172 331.993 80.564 332.105 81.044C332.233 81.524 332.297 82.108 332.297 82.796C332.297 84.54 331.833 85.804 330.905 86.588C329.977 87.356 328.537 87.74 326.585 87.74C325.593 87.74 324.649 87.676 323.753 87.548C322.857 87.436 322.161 87.292 321.665 87.116V83.588C322.305 83.796 323.065 83.964 323.945 84.092C324.825 84.204 325.705 84.26 326.585 84.26C327.289 84.26 327.777 84.172 328.049 83.996C328.321 83.82 328.457 83.468 328.457 82.94C328.457 82.604 328.409 82.364 328.313 82.22C328.233 82.06 328.065 81.948 327.809 81.884ZM334.23 78.644H332.838V75.644H334.35L334.806 72.884H337.83V75.644H341.19V78.644H337.83V83.252C337.83 83.7 337.942 84.004 338.166 84.164C338.406 84.308 338.87 84.38 339.558 84.38C339.798 84.38 340.094 84.364 340.446 84.332C340.798 84.284 341.094 84.236 341.334 84.188V87.26C341.078 87.372 340.678 87.476 340.134 87.572C339.606 87.684 339.134 87.74 338.718 87.74C337.118 87.74 335.966 87.404 335.262 86.732C334.574 86.044 334.23 84.932 334.23 83.396V78.644ZM345.482 87.74C344.266 87.74 343.37 87.436 342.794 86.828C342.234 86.22 341.954 85.26 341.954 83.948C341.954 82.604 342.29 81.66 342.962 81.116C343.65 80.572 344.826 80.3 346.49 80.3C346.874 80.3 347.266 80.324 347.666 80.372C348.082 80.404 348.442 80.452 348.746 80.516V79.652C348.746 79.268 348.578 78.988 348.242 78.812C347.922 78.62 347.426 78.524 346.754 78.524C345.986 78.524 345.298 78.548 344.69 78.596C344.098 78.628 343.554 78.692 343.058 78.788V75.836C343.65 75.692 344.338 75.588 345.122 75.524C345.906 75.444 346.818 75.404 347.858 75.404C349.33 75.404 350.442 75.732 351.194 76.388C351.962 77.044 352.346 78.012 352.346 79.292V87.5H348.986L348.866 86.492H348.794C348.298 86.876 347.754 87.18 347.162 87.404C346.57 87.628 346.01 87.74 345.482 87.74ZM346.97 82.676C346.33 82.676 345.898 82.748 345.674 82.892C345.45 83.02 345.338 83.3 345.338 83.732C345.338 84.132 345.426 84.412 345.602 84.572C345.794 84.716 346.122 84.788 346.586 84.788C346.938 84.788 347.306 84.74 347.69 84.644C348.074 84.548 348.426 84.428 348.746 84.284V82.82C348.554 82.772 348.314 82.74 348.026 82.724C347.738 82.692 347.386 82.676 346.97 82.676ZM357.968 82.892V87.5H354.368V71.54H357.968V80.108H358.52L361.52 75.644H365.792L361.616 81.356L366.032 87.5H361.64L358.52 82.892H357.968ZM375.879 83.996V86.852C375.495 87.092 374.847 87.3 373.935 87.476C373.023 87.652 372.063 87.74 371.055 87.74C369.135 87.74 367.751 87.26 366.903 86.3C366.055 85.324 365.631 83.748 365.631 81.572C365.631 79.444 366.079 77.884 366.975 76.892C367.871 75.9 369.287 75.404 371.223 75.404C373.111 75.404 374.439 75.78 375.207 76.532C375.991 77.268 376.383 78.58 376.383 80.468C376.383 80.98 376.375 81.388 376.359 81.692C376.343 81.996 376.311 82.348 376.263 82.748H369.255C369.271 83.404 369.447 83.86 369.783 84.116C370.119 84.372 370.735 84.5 371.631 84.5C372.399 84.5 373.183 84.452 373.983 84.356C374.783 84.244 375.415 84.124 375.879 83.996ZM371.223 78.476C370.455 78.476 369.935 78.612 369.663 78.884C369.391 79.14 369.255 79.652 369.255 80.42H373.119V79.892C373.103 79.332 372.967 78.956 372.711 78.764C372.471 78.572 371.975 78.476 371.223 78.476Z" fill="#D9D9D9"/>
<path d="M77.7641 211.98C72.4201 211.98 66.5001 211.66 60.0041 211.02V204.54C67.0761 205.02 72.3561 205.26 75.8441 205.26C76.5801 205.26 77.1561 205.052 77.5721 204.636C78.0201 204.188 78.2441 203.596 78.2441 202.86V200.94C78.2441 199.02 77.2841 198.06 75.3641 198.06H65.2841V191.34H74.4041C76.3241 191.34 77.2841 190.38 77.2841 188.46V187.5C77.2841 185.58 76.3241 184.62 74.4041 184.62H60.4841V177.9H76.8041C79.9401 177.9 82.2441 178.62 83.7161 180.06C85.1881 181.468 85.9241 183.628 85.9241 186.54C85.9241 188.46 85.4761 190.028 84.5801 191.244C83.7161 192.428 82.5641 193.26 81.1241 193.74C83.7161 194.444 85.4761 196.172 86.4041 198.924C86.7241 199.916 86.8841 201.068 86.8841 202.38V202.86C86.8841 205.996 86.1481 208.3 84.6761 209.772C83.2041 211.244 80.9001 211.98 77.7641 211.98ZM99.3809 177.42C103.765 177.42 109.045 177.74 115.221 178.38V184.86C113.461 184.764 111.957 184.684 110.709 184.62C109.493 184.524 108.485 184.46 107.685 184.428C106.917 184.364 106.149 184.3 105.381 184.236C104.101 184.172 102.917 184.14 101.829 184.14C99.8769 184.14 98.9009 184.94 98.9009 186.54V190.86C102.005 190.22 104.725 189.9 107.061 189.9H110.421C112.597 189.9 114.341 190.556 115.653 191.868C116.965 193.18 117.621 194.924 117.621 197.1V203.34C117.621 206.252 116.885 208.428 115.413 209.868C113.941 211.276 111.637 211.98 108.501 211.98H99.3809C96.2449 211.98 93.9409 211.276 92.4689 209.868C90.9969 208.428 90.2609 206.252 90.2609 203.34V186.54C90.2609 183.404 90.9969 181.1 92.4689 179.628C93.9409 178.156 96.2449 177.42 99.3809 177.42ZM104.661 196.62C103.445 196.62 102.325 196.684 101.301 196.812C100.309 196.94 99.5089 197.036 98.9009 197.1V202.38C98.9009 204.3 99.8609 205.26 101.781 205.26H106.101C108.021 205.26 108.981 204.3 108.981 202.38V198.3C108.981 197.82 108.821 197.42 108.501 197.1C108.181 196.78 107.781 196.62 107.301 196.62H104.661ZM137.295 211.98C131.951 211.98 126.031 211.66 119.535 211.02V204.54C126.607 205.02 131.887 205.26 135.375 205.26C136.111 205.26 136.687 205.052 137.103 204.636C137.551 204.188 137.775 203.596 137.775 202.86V200.46C137.775 198.54 136.815 197.58 134.895 197.58H120.975V177.9H144.015V184.62H129.615V190.86H137.295C140.431 190.86 142.735 191.58 144.207 193.02C145.679 194.428 146.415 196.588 146.415 199.5V202.86C146.415 205.996 145.679 208.3 144.207 209.772C142.735 211.244 140.431 211.98 137.295 211.98ZM182.147 211.5L181.667 209.1C180.163 210.092 178.611 210.828 177.011 211.308C175.443 211.756 174.115 211.98 173.027 211.98H170.867C168.691 211.98 166.947 211.324 165.635 210.012C164.323 208.7 163.667 206.956 163.667 204.78V193.74C163.667 191.34 164.339 189.468 165.683 188.124C167.059 186.748 168.947 186.06 171.347 186.06H181.187V177.9H189.587V211.5H182.147ZM175.427 205.02C177.123 205.02 179.043 204.7 181.187 204.06V192.54H173.987C172.707 192.54 172.067 193.18 172.067 194.46V203.34C172.067 203.82 172.227 204.22 172.547 204.54C172.867 204.86 173.267 205.02 173.747 205.02H175.427ZM204.462 205.26C206.158 205.26 208.078 204.94 210.222 204.3V201.42H203.262C202.782 201.42 202.382 201.58 202.062 201.9C201.742 202.22 201.582 202.62 201.582 203.1V203.58C201.582 204.06 201.742 204.46 202.062 204.78C202.382 205.1 202.782 205.26 203.262 205.26H204.462ZM195.582 186.54C201.438 185.9 206.718 185.58 211.422 185.58C213.598 185.58 215.342 186.236 216.654 187.548C217.966 188.86 218.622 190.604 218.622 192.78V211.5H211.182L210.702 209.1C209.198 210.092 207.646 210.828 206.046 211.308C204.478 211.756 203.15 211.98 202.062 211.98H200.382C198.206 211.98 196.462 211.324 195.15 210.012C193.838 208.7 193.182 206.956 193.182 204.78V202.62C193.182 200.444 193.838 198.7 195.15 197.388C196.462 196.076 198.206 195.42 200.382 195.42H210.222V193.5C210.222 193.02 210.062 192.62 209.742 192.3C209.422 191.98 209.022 191.82 208.542 191.82C206.462 191.82 204.158 191.916 201.63 192.108C199.134 192.3 197.118 192.444 195.582 192.54V186.54ZM229.18 220.14C227.484 220.14 225.404 219.98 222.94 219.66V213.42H227.26C228.476 213.42 229.26 213.084 229.612 212.412C229.996 211.74 229.932 210.796 229.42 209.58L219.58 186.06H228.46L234.46 202.38L239.5 186.06H248.38L238.78 212.46C237.852 214.988 236.652 216.892 235.18 218.172C233.708 219.484 231.708 220.14 229.18 220.14ZM248.875 204.78C255.371 205.26 260.491 205.5 264.235 205.5C264.715 205.5 265.115 205.34 265.435 205.02C265.755 204.7 265.915 204.3 265.915 203.82V202.14H255.595C253.419 202.14 251.675 201.484 250.363 200.172C249.051 198.86 248.395 197.116 248.395 194.94V193.26C248.395 191.084 249.051 189.34 250.363 188.028C251.675 186.716 253.419 186.06 255.595 186.06H271.915V192.3H258.475C257.995 192.3 257.595 192.46 257.275 192.78C256.955 193.1 256.795 193.5 256.795 193.98C256.795 194.46 256.955 194.86 257.275 195.18C257.595 195.5 257.995 195.66 258.475 195.66H267.115C269.291 195.66 271.035 196.316 272.347 197.628C273.659 198.94 274.315 200.684 274.315 202.86V204.78C274.315 206.956 273.659 208.7 272.347 210.012C271.035 211.324 269.291 211.98 267.115 211.98C261.451 211.98 255.371 211.66 248.875 211.02V204.78Z" fill="url(#paint4_linear_92_41)"/>
<path d="M356.553 193.479L353.765 192.967L341.152 165.516H325.108C324.874 165.499 324.64 165.499 324.406 165.516H324.397C323.109 165.625 321.86 166.319 321.122 167.598L320.875 168.028C320.121 169.333 320.125 170.942 320.884 172.243L333.236 193.396C333.995 194.697 334 196.306 333.245 197.612L330.404 202.53L325.16 192.034L326.067 191.128H310.149C310.028 191.123 309.906 191.123 309.789 191.128H309.676V191.132C309.447 191.149 309.221 191.175 308.996 191.227C307.933 191.475 306.948 192.138 306.328 193.214L306.224 193.4C305.474 194.702 305.474 196.302 306.224 197.599L321.122 223.401C322.129 225.145 324.076 225.8 325.789 225.375H341.82L341.134 224.004L356.553 193.479Z" fill="url(#paint5_linear_92_41)"/>
<path d="M337.604 167.598L337.357 168.028C336.602 169.333 336.606 170.942 337.365 172.243L349.718 193.396C350.477 194.697 350.481 196.306 349.727 197.612L342.609 209.943C341.998 211.001 340.471 211.005 339.855 209.951L330.075 193.197C328.448 190.412 324.423 190.425 322.814 193.214L322.706 193.4C321.955 194.702 321.955 196.302 322.706 197.599L337.604 223.401C339.222 226.199 343.26 226.199 344.878 223.401L359.776 197.599C360.526 196.298 360.526 194.697 359.776 193.4L344.878 167.598C343.26 164.801 339.222 164.801 337.604 167.598Z" fill="url(#paint6_linear_92_41)"/>
<path d="M403.689 198.06C401.769 198.06 400.809 199.02 400.809 200.94V202.86C400.809 203.596 401.017 204.188 401.433 204.636C401.881 205.052 402.473 205.26 403.209 205.26H410.409C411.145 205.26 411.721 205.052 412.137 204.636C412.585 204.188 412.809 203.596 412.809 202.86V200.94C412.809 199.02 411.849 198.06 409.929 198.06H403.689ZM404.649 184.14C402.729 184.14 401.769 185.1 401.769 187.02V188.46C401.769 190.38 402.729 191.34 404.649 191.34H408.969C410.889 191.34 411.849 190.38 411.849 188.46V187.02C411.849 185.1 410.889 184.14 408.969 184.14H404.649ZM421.449 202.86C421.449 205.996 420.713 208.3 419.241 209.772C417.769 211.244 415.465 211.98 412.329 211.98H401.289C398.153 211.98 395.849 211.244 394.377 209.772C392.905 208.3 392.169 205.996 392.169 202.86V202.38C392.169 199.948 392.777 197.932 393.993 196.332C394.953 195.052 396.265 194.188 397.929 193.74C396.489 193.26 395.321 192.428 394.425 191.244C393.561 190.028 393.129 188.46 393.129 186.54V186.06C393.129 183.148 393.865 180.988 395.337 179.58C396.809 178.14 399.113 177.42 402.249 177.42H411.369C414.505 177.42 416.809 178.14 418.281 179.58C419.753 180.988 420.489 183.148 420.489 186.06V186.54C420.489 188.46 420.041 190.028 419.145 191.244C418.281 192.428 417.129 193.26 415.689 193.74C418.281 194.444 420.041 196.172 420.969 198.924C421.289 199.916 421.449 201.068 421.449 202.38V202.86ZM430.086 211.5L449.286 177.9H456.486L437.766 211.5H430.086ZM440.166 189.18C440.166 191.1 439.638 192.588 438.582 193.644C437.558 194.668 436.086 195.18 434.166 195.18H429.846C427.926 195.18 426.438 194.668 425.382 193.644C424.358 192.588 423.846 191.1 423.846 189.18V183.42C423.846 181.5 424.358 180.028 425.382 179.004C426.438 177.948 427.926 177.42 429.846 177.42H434.166C436.086 177.42 437.558 177.948 438.582 179.004C439.638 180.028 440.166 181.5 440.166 183.42V189.18ZM434.406 183.42C434.406 182.3 433.846 181.74 432.726 181.74H431.286C430.166 181.74 429.606 182.3 429.606 183.42V189.18C429.606 190.3 430.166 190.86 431.286 190.86H432.726C433.846 190.86 434.406 190.3 434.406 189.18V183.42ZM463.206 205.98C463.206 207.9 462.678 209.388 461.622 210.444C460.598 211.468 459.126 211.98 457.206 211.98H452.886C450.966 211.98 449.478 211.468 448.422 210.444C447.398 209.388 446.886 207.9 446.886 205.98V200.22C446.886 198.3 447.398 196.828 448.422 195.804C449.478 194.748 450.966 194.22 452.886 194.22H457.206C459.126 194.22 460.598 194.748 461.622 195.804C462.678 196.828 463.206 198.3 463.206 200.22V205.98ZM457.446 200.22C457.446 199.1 456.886 198.54 455.766 198.54H454.326C453.206 198.54 452.646 199.1 452.646 200.22V205.98C452.646 207.1 453.206 207.66 454.326 207.66H455.766C456.886 207.66 457.446 207.1 457.446 205.98V200.22ZM487.453 211.5H478.093L490.813 177.9H500.413L513.133 211.5H503.773L501.613 205.5H489.613L487.453 211.5ZM491.773 199.26H499.453L495.613 187.98L491.773 199.26ZM515.531 177.9H535.691C539.051 177.9 541.483 178.668 542.987 180.204C544.523 181.708 545.291 184.14 545.291 187.5V192.3C545.291 195.66 544.523 198.108 542.987 199.644C541.483 201.148 539.051 201.9 535.691 201.9H524.171V211.5H515.531V177.9ZM536.651 187.5C536.651 185.58 535.691 184.62 533.771 184.62H524.171V195.18H533.771C535.691 195.18 536.651 194.22 536.651 192.3V187.5ZM544.832 177.9H553.952L561.872 194.22L569.792 177.9H578.912L566.192 202.62V211.5H557.552V202.62L544.832 177.9Z" fill="url(#paint7_linear_92_41)"/>
<rect x="1.5" y="150.5" width="633" height="90" rx="7.5" stroke="url(#paint8_linear_92_41)" stroke-width="3"/>
<path d="M315 103L315 148.873" stroke="url(#paint9_linear_92_41)" stroke-width="2" stroke-dasharray="9 9"/>
<path d="M315 240.639L315 286.512" stroke="url(#paint10_linear_92_41)" stroke-width="2" stroke-dasharray="9 9"/>
<path d="M448.293 351.707C448.683 352.098 449.317 352.098 449.707 351.707L456.071 345.343C456.462 344.953 456.462 344.319 456.071 343.929C455.681 343.538 455.047 343.538 454.657 343.929L449 349.586L443.343 343.929C442.953 343.538 442.319 343.538 441.929 343.929C441.538 344.319 441.538 344.953 441.929 345.343L448.293 351.707ZM448 283L448 287.25L450 287.25L450 283L448 283ZM448 295.75L448 304.25L450 304.25L450 295.75L448 295.75ZM448 312.75L448 321.25L450 321.25L450 312.75L448 312.75ZM448 329.75L448 338.25L450 338.25L450 329.75L448 329.75ZM448 346.75L448 351L450 351L450 346.75L448 346.75ZM447.586 352.414C448.367 353.195 449.633 353.195 450.414 352.414L463.142 339.686C463.923 338.905 463.923 337.639 463.142 336.858C462.361 336.077 461.095 336.077 460.314 336.858L449 348.172L437.686 336.858C436.905 336.077 435.639 336.077 434.858 336.858C434.077 337.639 434.077 338.905 434.858 339.686L447.586 352.414ZM447 283L447 287.25L451 287.25L451 283L447 283ZM447 295.75L447 304.25L451 304.25L451 295.75L447 295.75ZM447 312.75L447 321.25L451 321.25L451 312.75L447 312.75ZM447 329.75L447 338.25L451 338.25L451 329.75L447 329.75ZM447 346.75L447 351L451 351L451 346.75L447 346.75Z" fill="url(#paint11_linear_92_41)"/>
<path d="M179.293 351.707C179.683 352.098 180.317 352.098 180.707 351.707L187.071 345.343C187.462 344.953 187.462 344.319 187.071 343.929C186.681 343.538 186.047 343.538 185.657 343.929L180 349.586L174.343 343.929C173.953 343.538 173.319 343.538 172.929 343.929C172.538 344.319 172.538 344.953 172.929 345.343L179.293 351.707ZM179 283L179 287.25L181 287.25L181 283L179 283ZM179 295.75L179 304.25L181 304.25L181 295.75L179 295.75ZM179 312.75L179 321.25L181 321.25L181 312.75L179 312.75ZM179 329.75L179 338.25L181 338.25L181 329.75L179 329.75ZM179 346.75L179 351L181 351L181 346.75L179 346.75ZM178.586 352.414C179.367 353.195 180.633 353.195 181.414 352.414L194.142 339.686C194.923 338.905 194.923 337.639 194.142 336.858C193.361 336.077 192.095 336.077 191.314 336.858L180 348.172L168.686 336.858C167.905 336.077 166.639 336.077 165.858 336.858C165.077 337.639 165.077 338.905 165.858 339.686L178.586 352.414ZM178 283L178 287.25L182 287.25L182 283L178 283ZM178 295.75L178 304.25L182 304.25L182 295.75L178 295.75ZM178 312.75L178 321.25L182 321.25L182 312.75L178 312.75ZM178 329.75L178 338.25L182 338.25L182 329.75L178 329.75ZM178 346.75L178 351L182 351L182 346.75L178 346.75Z" fill="url(#paint12_linear_92_41)"/>
<path d="M449 286.26L179.559 286.008" stroke="url(#paint13_linear_92_41)" stroke-width="2" stroke-dasharray="9 9"/>
<defs>
<linearGradient id="paint0_linear_92_41" x1="72.5" y1="413" x2="283.5" y2="413" gradientUnits="userSpaceOnUse">
<stop stop-color="#DFAFFF"/>
<stop offset="1" stop-color="#4A93FF"/>
</linearGradient>
<linearGradient id="paint1_linear_92_41" x1="332" y1="413" x2="574" y2="413" gradientUnits="userSpaceOnUse">
<stop stop-color="#DFAFFF"/>
<stop offset="1" stop-color="#4A93FF"/>
</linearGradient>
<linearGradient id="paint2_linear_92_41" x1="183" y1="55.5" x2="233" y2="55.5" gradientUnits="userSpaceOnUse">
<stop stop-color="#BF5EFF"/>
<stop offset="1" stop-color="#5E36FF"/>
</linearGradient>
<linearGradient id="paint3_linear_92_41" x1="258" y1="70.5" x2="428" y2="70.5" gradientUnits="userSpaceOnUse">
<stop stop-color="#DFAFFF"/>
<stop offset="1" stop-color="#4A93FF"/>
</linearGradient>
<linearGradient id="paint4_linear_92_41" x1="58.6613" y1="235.5" x2="275.661" y2="235.5" gradientUnits="userSpaceOnUse">
<stop stop-color="#DFAFFF"/>
<stop offset="1" stop-color="#4A93FF"/>
</linearGradient>
<linearGradient id="paint5_linear_92_41" x1="305.661" y1="225.5" x2="356.553" y2="225.5" gradientUnits="userSpaceOnUse">
<stop stop-color="#BF5EFF"/>
<stop offset="1" stop-color="#5E36FF"/>
</linearGradient>
<linearGradient id="paint6_linear_92_41" x1="322.143" y1="225.499" x2="360.339" y2="225.499" gradientUnits="userSpaceOnUse">
<stop stop-color="#DFAFFF"/>
<stop offset="1" stop-color="#4A93FF"/>
</linearGradient>
<linearGradient id="paint7_linear_92_41" x1="390.339" y1="235.5" x2="578.339" y2="235.5" gradientUnits="userSpaceOnUse">
<stop stop-color="#DFAFFF"/>
<stop offset="1" stop-color="#4A93FF"/>
</linearGradient>
<linearGradient id="paint8_linear_92_41" x1="0" y1="242" x2="636" y2="242" gradientUnits="userSpaceOnUse">
<stop stop-color="#DFAFFF"/>
<stop offset="1" stop-color="#4A93FF"/>
</linearGradient>
<linearGradient id="paint9_linear_92_41" x1="314" y1="103" x2="314" y2="148.873" gradientUnits="userSpaceOnUse">
<stop stop-color="#DFAFFF"/>
<stop offset="1" stop-color="#4A93FF"/>
</linearGradient>
<linearGradient id="paint10_linear_92_41" x1="314" y1="240.639" x2="314" y2="286.512" gradientUnits="userSpaceOnUse">
<stop stop-color="#DFAFFF"/>
<stop offset="1" stop-color="#4A93FF"/>
</linearGradient>
<linearGradient id="paint11_linear_92_41" x1="448" y1="283" x2="448" y2="351" gradientUnits="userSpaceOnUse">
<stop stop-color="#DFAFFF"/>
<stop offset="1" stop-color="#4A93FF"/>
</linearGradient>
<linearGradient id="paint12_linear_92_41" x1="179" y1="283" x2="179" y2="351" gradientUnits="userSpaceOnUse">
<stop stop-color="#DFAFFF"/>
<stop offset="1" stop-color="#4A93FF"/>
</linearGradient>
<linearGradient id="paint13_linear_92_41" x1="449.001" y1="285.26" x2="179.56" y2="285.008" gradientUnits="userSpaceOnUse">
<stop stop-color="#DFAFFF"/>
<stop offset="1" stop-color="#4A93FF"/>
</linearGradient>
</defs>
</svg>
