<svg width="28" height="28" viewBox="0 0 28 28" fill="none" xmlns="http://www.w3.org/2000/svg">
<g filter="url(#filter0_d_141_1889)">
<path d="M14 0.5C19.2453 0.5 23.5 4.75469 23.5 10C23.5 15.2453 19.2453 19.5 14 19.5C8.7546 19.5 4.5 15.2479 4.5 10C4.5 4.75197 8.75197 0.5 14 0.5Z" stroke="white"/>
<path d="M14.3704 13.6846C14.3704 13.8071 14.3314 13.9063 14.2533 13.982C14.1752 14.0578 14.0823 14.0952 13.9763 14.0952H13.7244C13.6017 14.0952 13.5051 14.0531 13.4353 13.9699C13.3656 13.8857 13.3303 13.7913 13.3303 13.6856V12.2698C13.3303 11.9462 13.3842 11.6582 13.493 11.4076C13.6017 11.1569 13.743 10.9278 13.9177 10.7212C14.0925 10.5145 14.2905 10.3265 14.5126 10.1563C14.7348 9.98614 14.9634 9.81874 15.1995 9.65416C15.4356 9.48957 15.6642 9.32031 15.8864 9.14731C16.1085 8.97431 16.3065 8.78447 16.4812 8.5778C16.656 8.37114 16.7973 8.14202 16.906 7.89141C17.0138 7.63985 17.0687 7.34995 17.0687 7.02078C17.0687 6.59061 16.9878 6.20814 16.827 5.87336C16.6662 5.53857 16.4468 5.25522 16.1689 5.02331C15.891 4.79139 15.5657 4.61558 15.1911 4.49588C14.8165 4.37619 14.4187 4.31634 13.9967 4.31634C13.5748 4.31634 13.1797 4.3846 12.8107 4.52113C12.4417 4.65766 12.1211 4.85031 11.8497 5.09905C11.5773 5.3478 11.3635 5.64799 11.2083 5.9996C11.0531 6.35122 10.975 6.74211 10.975 7.17228C10.975 7.27327 10.9378 7.36398 10.8626 7.4444C10.7873 7.52576 10.7083 7.58 10.6255 7.60806H10.3839C10.2677 7.60806 10.184 7.58 10.1338 7.52389C10.0837 7.46498 10.039 7.39578 10 7.31161V7.20314C10.0167 6.64485 10.132 6.12959 10.3458 5.65827C10.5595 5.18696 10.8477 4.77923 11.2111 4.4351C11.5745 4.0919 11.9965 3.82258 12.4761 3.62713C12.9567 3.43075 13.4688 3.3335 14.0125 3.3335C14.5674 3.3335 15.0861 3.42046 15.5694 3.59347C16.0518 3.76647 16.4738 4.01241 16.8344 4.33036C17.1951 4.64831 17.4795 5.03359 17.6877 5.48621C17.8959 5.93882 18 6.4438 18 7.00208C18 7.5267 17.9098 7.97744 17.7305 8.3543C17.5501 8.73117 17.3252 9.06314 17.0538 9.35117C16.7824 9.6392 16.4905 9.89449 16.1773 10.1171C15.8641 10.3406 15.5722 10.5594 15.3008 10.7745C15.0294 10.9895 14.8054 11.213 14.6279 11.445C14.4503 11.6769 14.3648 11.9462 14.3704 12.2529V13.6846ZM13.163 15.8037C13.163 15.7139 13.1853 15.64 13.2299 15.5821C13.2745 15.5231 13.3312 15.4792 13.401 15.4483C13.4707 15.4175 13.5478 15.3969 13.6343 15.3857C13.7207 15.3745 13.8025 15.3688 13.8796 15.3688C14.0181 15.3688 14.1278 15.3857 14.2087 15.4193C14.2886 15.453 14.3472 15.5007 14.3834 15.5615C14.4197 15.6232 14.442 15.6943 14.4503 15.7747C14.4587 15.8561 14.4624 15.9412 14.4624 16.03C14.4624 16.1862 14.4466 16.3077 14.4169 16.3947C14.3862 16.4817 14.3407 16.5443 14.2793 16.5836C14.218 16.6229 14.1436 16.6463 14.0544 16.6547C13.9651 16.6631 13.8629 16.6668 13.7467 16.6668C13.6138 16.6668 13.5078 16.6509 13.4307 16.621C13.3526 16.5901 13.2931 16.5471 13.2513 16.491C13.2095 16.4349 13.1835 16.3713 13.1723 16.2984C13.1611 16.2254 13.1556 16.1478 13.1556 16.0637C13.1556 16.0188 13.1565 15.9758 13.1593 15.9337C13.1621 15.8916 13.163 15.8486 13.163 15.8037Z" fill="white"/>
</g>
<defs>
<filter id="filter0_d_141_1889" x="0" y="0" width="28" height="28" filterUnits="userSpaceOnUse" color-interpolation-filters="sRGB">
<feFlood flood-opacity="0" result="BackgroundImageFix"/>
<feColorMatrix in="SourceAlpha" type="matrix" values="0 0 0 0 0 0 0 0 0 0 0 0 0 0 0 0 0 0 127 0" result="hardAlpha"/>
<feOffset dy="4"/>
<feGaussianBlur stdDeviation="2"/>
<feComposite in2="hardAlpha" operator="out"/>
<feColorMatrix type="matrix" values="0 0 0 0 0 0 0 0 0 0 0 0 0 0 0 0 0 0 0.25 0"/>
<feBlend mode="normal" in2="BackgroundImageFix" result="effect1_dropShadow_141_1889"/>
<feBlend mode="normal" in="SourceGraphic" in2="effect1_dropShadow_141_1889" result="shape"/>
</filter>
</defs>
</svg>
